POST _bulk
{"index":{"_index":"packages-en","_id":"pkg_0001"}}
{"id":"pkg_0001","name":"Package Internet 100Mbps","description":"Internet Unlimited...","active":true,"clientId":"1","price":380000,"discountedPrice":375000,"termsAndConditions":[],"images":[],"addons":[],"group":"Indihome Gamer","internetPackage":{"id":"pkg_0001_int_0001","name":" ","description":"","active":true,"speed":100,"numberOfUsers":"10","entertainment":[],"addons":[]},"callPackage":{"id":"pkg_0001_call_0001","name":" ","description":"","active":true,"minutes":1000,"addons":[]},"tvPackage":{"id":"pkg_0001_tv_0001","name":" ","description":"","active":true,"channels":[{"group":"Local Channels","image":"http://image.jpg","description":"cnn1","active":true},{"group":"Local Channels","image":"http://image.jpg","description":"cnn2","active":true},{"group":"Entertainmant","image":"http://image.jpg","description":"bbc1","active":true}],"addons":[]}}
{"index":{"_index":"packages-en","_id":"pkg_0002"}}
{"id":"pkg_0002","name":"Package Internet 200Mbps","description":"Internet Unlimited...","active":true,"clientId":"2","price":680000,"discountedPrice":675000,"termsAndConditions":[],"images":[],"addons":[],"group":"Indihome Gamer","internetPackage":{"id":"pkg_0001_int_0002","name":" ","description":"","active":true,"speed":100,"numberOfUsers":"10","entertainment":[],"addons":[]},"callPackage":{"id":"pkg_0001_call_0002","name":" ","description":"","active":true,"minutes":1000,"addons":[]},"tvPackage":{"id":"pkg_0001_tv_0002","name":" ","description":"","active":true,"channels":[{"group":"Local Channels","image":"http://image.jpg","description":"cnn1","active":true},{"group":"Local Channels","image":"http://image.jpg","description":"cnn2","active":true},{"group":"Entertainmant","image":"http://image.jpg","description":"bbc1","active":true}],"addons":[]}}
{"index":{"_index":"packages-en","_id":"pkg_0003"}}
{"id":"pkg_0003","name":"Package Internet 50Mbps","description":"Internet Unlimited...","active":true,"clientId":"2","price":180000,"discountedPrice":175000,"termsAndConditions":[],"images":[],"addons":[],"group":"Indihome Gamer","internetPackage":{"id":"pkg_0001_int_0003","name":" ","description":"","active":true,"speed":100,"numberOfUsers":"10","entertainment":[],"addons":[]},"callPackage":{"id":"pkg_0001_call_0003","name":" ","description":"","active":true,"minutes":1000,"addons":[]},"tvPackage":{"id":"pkg_0001_tv_0003","name":" ","description":"","active":true,"channels":[{"group":"Local Channels","image":"http://image.jpg","description":"cnn1","active":true},{"group":"Local Channels","image":"http://image.jpg","description":"cnn2","active":true},{"group":"Entertainmant","image":"http://image.jpg","description":"bbc1","active":true}],"addons":[]}}

{"index":{"_index":"packages-id","_id":"pkg_0001"}}
{"id":"pkg_0001","name":"Paket BUMN 100Mbps","description":"Internet Unlimited...","active":true,"clientId":"1","price":380000,"discountedPrice":375000,"termsAndConditions":[],"images":[],"addons":[],"group":"Indihome Gamer","internetPackage":{"id":"pkg_0001_int_0001","name":" ","description":"","active":true,"speed":100,"numberOfUsers":"10","entertainment":[],"addons":[]},"callPackage":{"id":"pkg_0001_call_0001","name":" ","description":"","active":true,"minutes":1000,"addons":[]},"tvPackage":{"id":"pkg_0001_tv_0001","name":" ","description":"","active":true,"channels":[{"group":"Local Channels","image":"http://image.jpg","description":"cnn1","active":true},{"group":"Local Channels","image":"http://image.jpg","description":"cnn2","active":true},{"group":"Entertainmant","image":"http://image.jpg","description":"bbc1","active":true}],"addons":[]}}
{"index":{"_index":"packages-id","_id":"pkg_0002"}}
{"id":"pkg_0002","name":"Paket BUMN 200Mbps","description":"Internet Unlimited...","active":true,"clientId":"2","price":680000,"discountedPrice":675000,"termsAndConditions":[],"images":[],"addons":[],"group":"Indihome Gamer","internetPackage":{"id":"pkg_0001_int_0002","name":" ","description":"","active":true,"speed":100,"numberOfUsers":"10","entertainment":[],"addons":[]},"callPackage":{"id":"pkg_0001_call_0002","name":" ","description":"","active":true,"minutes":1000,"addons":[]},"tvPackage":{"id":"pkg_0001_tv_0002","name":" ","description":"","active":true,"channels":[{"group":"Local Channels","image":"http://image.jpg","description":"cnn1","active":true},{"group":"Local Channels","image":"http://image.jpg","description":"cnn2","active":true},{"group":"Entertainmant","image":"http://image.jpg","description":"bbc1","active":true}],"addons":[]}}
{"index":{"_index":"packages-id","_id":"pkg_0003"}}
{"id":"pkg_0003","name":"Paket BUMN 50Mbps","description":"Internet Unlimited...","active":true,"clientId":"2","price":180000,"discountedPrice":175000,"termsAndConditions":[],"images":[],"addons":[],"group":"Indihome Gamer","internetPackage":{"id":"pkg_0001_int_0003","name":" ","description":"","active":true,"speed":100,"numberOfUsers":"10","entertainment":[],"addons":[]},"callPackage":{"id":"pkg_0001_call_0003","name":" ","description":"","active":true,"minutes":1000,"addons":[]},"tvPackage":{"id":"pkg_0001_tv_0003","name":" ","description":"","active":true,"channels":[{"group":"Local Channels","image":"http://image.jpg","description":"cnn1","active":true},{"group":"Local Channels","image":"http://image.jpg","description":"cnn2","active":true},{"group":"Entertainmant","image":"http://image.jpg","description":"bbc1","active":true}],"addons":[]}}
